<svg xmlns="http://www.w3.org/2000/svg" viewBox="0 0 526.2 435.84">
  <defs>
    <style>
      .cls-1 {
        fill: #fff;
        stroke: #ecedef;
        stroke-miterlimit: 10;
      }

      .cls-2 {
        fill: #ecedef;
      }

      .cls-3 {
        font-size: 20px;
      }

      .cls-10, .cls-3 {
        fill: #104de5;
      }

      .cls-3, .cls-8 {
        font-family: Roboto-Regular, Roboto;
      }

      .cls-4 {
        letter-spacing: -0.01em;
      }

      .cls-5 {
        letter-spacing: -0.02em;
      }

      .cls-6 {
        fill: #99989d;
      }

      .cls-7 {
        font-size: 14px;
        font-family: Roboto-Bold, Roboto;
        font-weight: 700;
      }

      .cls-7, .cls-9 {
        fill: #04003d;
      }

      .cls-8 {
        font-weight: 400;
        letter-spacing: 0em;
      }

      .cls-10 {
        fill-rule: evenodd;
      }
    </style>
  </defs>
  <title>cards</title>
  <g id="Capa_2" data-name="Capa 2">
    <g id="Capa_1-2" data-name="Capa 1">
      <rect class="cls-1" x="0.5" y="0.5" width="525.2" height="434.84"/>
      <rect class="cls-2" x="67.4" y="58.43" width="392.33" height="270.31" rx="14.17"/>
      <text class="cls-3" transform="translate(237.95 193.59)"><tspan class="cls-4">P</tspan><tspan x="12.51" y="0">alab</tspan><tspan class="cls-5" x="50.34" y="0">r</tspan><tspan x="56.72" y="0">a</tspan></text>
      <g>
        <path class="cls-6" d="M433.73,84.06v7.67l-4.58-4.58h-3a.45.45,0,0,1-.46-.46V81.43a.45.45,0,0,1,.46-.45h3l4.58-4.58Z"/>
        <path class="cls-6" d="M435.57,87.58a3.95,3.95,0,0,0,0-7V79.27a5.13,5.13,0,0,1,0,9.58Z"/>
        <path class="cls-6" d="M435.57,92.51v-2a6.7,6.7,0,0,0,0-12.89v-2a8.64,8.64,0,0,1,0,16.89Z"/>
      </g>
      <g>
        <path class="cls-6" d="M272.1,92h-8.43V87a6.77,6.77,0,1,1,11.13-6.75l0,.09.05,1.11,2,2.86-1.8,1.31v1a2.18,2.18,0,0,1-2.18,2.18h-.84Zm-6.73-1.7h5V87.08h2.54a.48.48,0,0,0,.48-.48V84.73l1.14-.82L273.2,82l-.06-1.42a5.08,5.08,0,1,0-8.08,5.35l.31.25Z"/>
        <path class="cls-6" d="M278.81,87.35l-1.2-1.2a2,2,0,0,0,0-2.78l1.2-1.2a3.66,3.66,0,0,1,0,5.18Z"/>
        <path class="cls-6" d="M281.11,89.16l-1.2-1.2a4.54,4.54,0,0,0,0-6.4l1.2-1.2a6.24,6.24,0,0,1,0,8.8Z"/>
        <path class="cls-6" d="M283.74,90.86l-1.2-1.2a6.94,6.94,0,0,0,0-9.8l1.2-1.2a8.62,8.62,0,0,1,0,12.2Z"/>
      </g>
      <text class="cls-7" transform="translate(230.11 370.41) scale(1.19 1)">1<tspan class="cls-8" x="8.03" y="0" xml:space="preserve">  de  27</tspan></text>
      <path class="cls-9" d="M312.4,365.73a1.15,1.15,0,0,1,.33.81,1.17,1.17,0,0,1-.33.81l-7,7a1.14,1.14,0,0,1-1.62-1.61l6.21-6.21-6.21-6.21a1.15,1.15,0,0,1,1.62-1.62l7,7Z"/>
      <path class="cls-9" d="M216.28,365.73l7-7a1.15,1.15,0,1,1,1.62,1.62l-6.21,6.21,6.21,6.21a1.14,1.14,0,1,1-1.62,1.61l-7-7a1.17,1.17,0,0,1-.33-.81,1.15,1.15,0,0,1,.33-.81Z"/>
      <path class="cls-10" d="M289.11,289.41h-1.49a11.43,11.43,0,0,0-21.52-3.54l3.07,1.17a8.18,8.18,0,0,1,15.14,2.37h-2c-.25.25-.5.4-.13.82l3.05,3.11a.67.67,0,0,0,.91,0l3.08-3.11c.25-.24.12-.57-.14-.82Zm-12.81,9.81a8.18,8.18,0,0,1-7.81-5.72h1.79c.26-.25.39-.58.13-.82l-3.07-3.1a.65.65,0,0,0-.91,0l-3.05,3.1c-.36.42-.12.57.13.82H265a11.52,11.52,0,0,0,21.09,3.44l-3.1-1.22a8.15,8.15,0,0,1-6.7,3.5Z"/>
      <path class="cls-6" d="M99.34,84.72h-4a.23.23,0,0,1-.23-.24v-4a1.19,1.19,0,1,0-2.37,0v4a.24.24,0,0,1-.24.24h-4a1.19,1.19,0,0,0,0,2.37h4a.23.23,0,0,1,.24.23v4a1.19,1.19,0,0,0,2.37,0v-4a.23.23,0,0,1,.23-.23h4a1.19,1.19,0,0,0,0-2.37Z"/>
    </g>
  </g>
</svg>
