<svg xmlns="http://www.w3.org/2000/svg" viewBox="0 0 164.57 164.57">
  <defs>
    <style>
      .cls-1 {
        fill: #104de5;
      }
    </style>
  </defs>
  <title>light-active</title>
  <g id="Capa_2" data-name="Capa 2">
    <g id="Capa_1-2" data-name="Capa 1">
      <g>
        <path class="cls-1" d="M82.27,41.07A41.22,41.22,0,1,0,123.5,82.29,41.25,41.25,0,0,0,82.27,41.07Z"/>
        <path class="cls-1" d="M82.27,29a8,8,0,0,1-8-8V8A8,8,0,0,1,90.32,8V20.91a8,8,0,0,1-8,8Z"/>
        <path class="cls-1" d="M82.27,135.61a8,8,0,0,0-8,8v12.86a8,8,0,1,0,16.09,0V143.66a8,8,0,0,0-8-8Z"/>
        <path class="cls-1" d="M120,44.57a8,8,0,0,1,0-11.37l9.09-9.11a8,8,0,1,1,11.37,11.39l-9.1,9.09a8,8,0,0,1-11.36,0Z"/>
        <path class="cls-1" d="M44.57,120a8,8,0,0,0-11.37,0l-9.11,9.09a8,8,0,0,0,11.39,11.37l9.09-9.1a8,8,0,0,0,0-11.36Z"/>
        <path class="cls-1" d="M135.61,82.28a8.05,8.05,0,0,1,8-8h12.86a8,8,0,1,1,0,16.09H143.66a8,8,0,0,1-8-8Z"/>
        <path class="cls-1" d="M29,82.28a8,8,0,0,0-8-8H8A8,8,0,0,0,8,90.32H20.91a8,8,0,0,0,8-8Z"/>
        <path class="cls-1" d="M120,120a8,8,0,0,1,11.36,0l9.1,9.09a8,8,0,0,1-11.37,11.37l-9.09-9.1A8,8,0,0,1,120,120Z"/>
        <path class="cls-1" d="M44.57,44.57a8.06,8.06,0,0,0,0-11.37l-9.09-9.09A8,8,0,0,0,24.09,35.48l9.11,9.09a8,8,0,0,0,11.37,0Z"/>
      </g>
    </g>
  </g>
</svg>
