<svg xmlns="http://www.w3.org/2000/svg" viewBox="0 0 153.98 34.48">
  <defs>
    <style>
      .cls-1 {
        fill: #04003d;
      }
    </style>
  </defs>
  <title>logo-black</title>
  <g id="Capa_2" data-name="Capa 2">
    <g id="Capa_1-2" data-name="Capa 1">
      <g>
        <g>
          <path class="cls-1" d="M55.23,23.68,52.3,19.54l-2.47,4.14h-3.6L50.49,17,46.14,10.8h3.67l2.86,4.07,2.46-4.07h3.61l-4.33,6.53,4.49,6.35Z"/>
          <path class="cls-1" d="M71.2,11.43a5.29,5.29,0,0,1,2,2.29A7.9,7.9,0,0,1,74,17.24a7.9,7.9,0,0,1-.74,3.52,5.35,5.35,0,0,1-2,2.29,5.52,5.52,0,0,1-2.93.79,4.83,4.83,0,0,1-2.78-.78A4.27,4.27,0,0,1,63.85,21v8.83H60.57v-19h3.28v2.67a4.2,4.2,0,0,1,1.64-2.07,4.9,4.9,0,0,1,2.78-.76A5.52,5.52,0,0,1,71.2,11.43Zm-6.41,3.08a3.79,3.79,0,0,0-1,2.73,3.79,3.79,0,0,0,1,2.71,3.27,3.27,0,0,0,2.46,1,3.22,3.22,0,0,0,2.46-1,3.83,3.83,0,0,0,.93-2.73,3.9,3.9,0,0,0-.93-2.75,3.5,3.5,0,0,0-4.92,0Z"/>
          <path class="cls-1" d="M88.29,17.87H78.85a3.49,3.49,0,0,0,.93,2.53,3,3,0,0,0,2.14.81,3.09,3.09,0,0,0,1.89-.55,2.53,2.53,0,0,0,1-1.52h3.46a5.61,5.61,0,0,1-1.09,2.42A5.89,5.89,0,0,1,85,23.24a7.41,7.41,0,0,1-6.27-.2,5.71,5.71,0,0,1-2.28-2.29,7.22,7.22,0,0,1-.81-3.51,7.29,7.29,0,0,1,.81-3.52,5.53,5.53,0,0,1,2.28-2.29,6.91,6.91,0,0,1,3.35-.79,6.72,6.72,0,0,1,3.33.79,5.5,5.5,0,0,1,2.21,2.17,6.29,6.29,0,0,1,.78,3.15A7,7,0,0,1,88.29,17.87Zm-4-3.84a3.16,3.16,0,0,0-2.2-.81,3.22,3.22,0,0,0-2.23.81,3.29,3.29,0,0,0-1,2.39H85.1A2.89,2.89,0,0,0,84.28,14Z"/>
          <path class="cls-1" d="M98.56,11.4a4.11,4.11,0,0,1,1.65,2.07V10.8h3.26V23.68h-3.26V21a4.17,4.17,0,0,1-1.65,2.08,4.87,4.87,0,0,1-2.79.78,5.52,5.52,0,0,1-2.93-.79,5.35,5.35,0,0,1-2-2.29,7.9,7.9,0,0,1-.73-3.52,7.9,7.9,0,0,1,.73-3.52,5.29,5.29,0,0,1,2-2.29,5.52,5.52,0,0,1,2.93-.79A4.94,4.94,0,0,1,98.56,11.4Zm-4.23,3.09a3.9,3.9,0,0,0-.93,2.75A3.83,3.83,0,0,0,94.33,20a3.22,3.22,0,0,0,2.46,1,3.27,3.27,0,0,0,2.46-1,3.79,3.79,0,0,0,1-2.71,3.79,3.79,0,0,0-1-2.73,3.5,3.5,0,0,0-4.92,0Z"/>
          <path class="cls-1" d="M114,23.68l-4.25-5.63v5.63h-3.28V6.47h3.28v9.67L114,10.8h3.88l-5.41,6.41L118,23.68Z"/>
          <path class="cls-1" d="M119.74,5.81a2.4,2.4,0,0,1,2.93,0,1.65,1.65,0,0,1,.56,1.29,1.64,1.64,0,0,1-.56,1.27,2.4,2.4,0,0,1-2.93,0,1.64,1.64,0,0,1-.56-1.27A1.65,1.65,0,0,1,119.74,5.81Zm3.09,5V23.68h-3.28V10.8Z"/>
          <path class="cls-1" d="M137,12.08a5.9,5.9,0,0,1,1.32,4.11v7.49h-3.25V16.56a3.4,3.4,0,0,0-.79-2.38,2.81,2.81,0,0,0-2.17-.85,2.87,2.87,0,0,0-2.23.91,3.68,3.68,0,0,0-.83,2.6v6.84h-3.28V10.8h3.28v2.58a4.11,4.11,0,0,1,1.68-2,5.09,5.09,0,0,1,2.71-.73A4.57,4.57,0,0,1,137,12.08Z"/>
          <path class="cls-1" d="M149.08,11.4a4.22,4.22,0,0,1,1.65,2.07V10.8H154V23.72a7,7,0,0,1-.71,3.22,5.21,5.21,0,0,1-2.11,2.25,6.72,6.72,0,0,1-3.41.81,7.21,7.21,0,0,1-4.51-1.32,5.54,5.54,0,0,1-2.09-3.61h3.23a2.69,2.69,0,0,0,1.08,1.52,3.55,3.55,0,0,0,2.06.55,3.21,3.21,0,0,0,2.33-.85,3.43,3.43,0,0,0,.88-2.57V21a4.28,4.28,0,0,1-1.65,2.08,4.91,4.91,0,0,1-2.79.78,5.5,5.5,0,0,1-2.93-.79,5.28,5.28,0,0,1-2-2.29,7.9,7.9,0,0,1-.74-3.52,7.9,7.9,0,0,1,.74-3.52,5.23,5.23,0,0,1,2-2.29,5.5,5.5,0,0,1,2.93-.79A5,5,0,0,1,149.08,11.4Zm-4.23,3.09a3.9,3.9,0,0,0-.93,2.75,3.83,3.83,0,0,0,.93,2.73,3.22,3.22,0,0,0,2.46,1,3.25,3.25,0,0,0,2.45-1,3.75,3.75,0,0,0,1-2.71,3.75,3.75,0,0,0-1-2.73,3.49,3.49,0,0,0-4.91,0Z"/>
        </g>
        <path class="cls-1" d="M36.43,8.55a13.22,13.22,0,0,0-4.21-5C29,1.24,24.4,0,19,0S9,1.24,5.74,3.59a13.22,13.22,0,0,0-4.21,5A16.08,16.08,0,0,0,0,15.72C0,21.52,2.39,26,6.94,28.63a15.75,15.75,0,0,1-1.45,3.58L4.08,34.47h2.7a11.54,11.54,0,0,0,7.84-3.33,32,32,0,0,0,4.36.29c5.42,0,10-1.24,13.24-3.59a13.17,13.17,0,0,0,4.21-5A16.07,16.07,0,0,0,38,15.72,16.08,16.08,0,0,0,36.43,8.55ZM25.81,18.64A2.87,2.87,0,1,1,23,16a3,3,0,0,1,.95.16V11.26l-6.68,1.79v7.83a2.78,2.78,0,0,1-2.86,2.69,2.7,2.7,0,1,1,0-5.38,3,3,0,0,1,1,.16V9.89l10.5-2.74Z"/>
      </g>
    </g>
  </g>
</svg>
