<svg xmlns="http://www.w3.org/2000/svg" viewBox="0 0 189.18 168.75">
  <defs>
    <style>
      .cls-1 {
        fill: none;
      }

      .cls-1, .cls-2 {
        stroke: #fff;
        stroke-miterlimit: 10;
        stroke-width: 5px;
      }

      .cls-2 {
        fill: #fff;
      }
    </style>
  </defs>
  <title>subtitle_3</title>
  <g id="Capa_2" data-name="Capa 2">
    <g id="Capa_1-2" data-name="Capa 1">
      <g>
        <path class="cls-1" d="M166.25,2.5H23A20.52,20.52,0,0,0,2.5,23V145.76A20.56,20.56,0,0,0,23,166.25H166.25a20.53,20.53,0,0,0,20.43-20.49V23A20.5,20.5,0,0,0,166.25,2.5Z"/>
        <path class="cls-2" d="M84.34,74.16H69V69H48.58V99.75H69V94.59H84.34v10.25c0,6.14-4.09,10.24-10.18,10.24H43.42c-6.14,0-10.24-4.1-10.24-10.24V63.91c0-6.15,4.1-10.24,10.24-10.24H74.16c6.09,0,10.18,4.09,10.18,10.24Z"/>
        <path class="cls-2" d="M156,74.16H140.67V69h-20.5V99.75h20.5V94.59H156v10.25c0,6.14-4.1,10.24-10.25,10.24H115.08c-6.15,0-10.24-4.1-10.24-10.24V63.91c0-6.15,4.09-10.24,10.24-10.24h30.68c6.15,0,10.25,4.09,10.25,10.24Z"/>
      </g>
    </g>
  </g>
</svg>
