<svg xmlns="http://www.w3.org/2000/svg" viewBox="0 0 163 165.03">
  <defs>
    <style>
      .cls-1 {
        fill: #104de5;
      }
    </style>
  </defs>
  <title>volume-active</title>
  <g id="Capa_2" data-name="Capa 2">
    <g id="Capa_1-2" data-name="Capa 1">
      <g>
        <path class="cls-1" d="M78.4,82.52V157.4L33.61,112.69H4.49A4.49,4.49,0,0,1,0,108.21V56.82a4.49,4.49,0,0,1,4.49-4.48H33.61L78.4,7.63Z"/>
        <path class="cls-1" d="M96.43,116.86a38.61,38.61,0,0,0,0-68.69V35.7a50.11,50.11,0,0,1,0,93.63Z"/>
        <path class="cls-1" d="M96.43,165V145.51a65.47,65.47,0,0,0,0-126V0a84.42,84.42,0,0,1,0,165Z"/>
      </g>
    </g>
  </g>
</svg>
